1 999999 525
999999 1 525
1 1 1
999999 999999 259
819181 20887 509
741977 936455 525
5822 806415 509
943057 719705 525
438167 798629 509
247802 596595 470
522954 18380 470
237768 588308 470
12216 824583 509
104460 874974 525
33354 89370 351
285229 309667 389
377708 150427 443
468748 871899 525
591192 736370 509
834096 658417 504
613795 937899 525
939821 86368 525
526524 57623 470
484572 523311 470
362641 725031 509
919258 885787 476
188099 728657 509
244859 970974 525
715789 410928 509
89982 632492 509
444827 745531 509
556424 402982 470
296426 875560 525
559762 58267 470
997211 798480 525
135323 515345 470
756631 597502 509
607518 578998 434
765753 226083 509
155107 948802 525
614352 757336 509
672727 613768 509
523575 808723 509
62468 339365 443
753114 453437 509
261323 998741 525
135920 213913 383
267403 112087 443
139956 989548 525
533891 812731 509
222704 389391 443
598641 648210 509
791998 604244 509
935440 894238 476
819648 268524 509
597671 696174 509
28406 402036 443
606692 162635 470
186220 887963 525
990988 384329 525
606813 184634 470
254526 319844 407
151783 64039 375
586590 679219 509
507396 847251 525
202850 141785 383
375888 575843 470
70776 60020 335
849159 69267 525
102896 825473 509
396735 225774 443
571139 740062 509
962926 809958 525
361128 986887 525
950857 617940 525
409571 735013 509
457241 261548 449
439441 659018 509
946995 110144 525
981896 250885 525
821389 516695 509
638959 921643 525
22556 119654 354
677047 499385 509
365783 512323 470
196103 739667 509
826919 544894 509
540737 992186 525
116344 359945 443
297919 913024 525
209363 625790 470
480190 209615 449
673545 115138 509
189434 762990 509
738245 228373 509
469776 675379 509
158381 47146 383
699555 983796 525
210188 433380 449
303360 150397 443
458240 942410 525
28745 682748 509
235874 295315 407
792914 702048 504
132277 677537 509
336591 651461 509
449473 764247 509
767706 193064 509
789074 439800 509
576910 516388 452
95998 699202 509
941542 739760 525
779107 712412 468
204056 425594 449
128533 957955 525
244391 82072 443
984471 853381 507
288684 342433 384
345145 146516 443
211623 545774 470
147127 860600 525
420297 536258 470
357493 383342 423
403769 73464 443
688471 460813 509
804660 801984 388
339116 573974 470
902493 599762 525
527420 401588 470
919372 447786 525
766778 602253 509
130304 711764 509
741621 244150 509
416817 112306 449
175963 862232 525
334030 58685 443
940879 326202 525
856342 227282 525
879661 235834 525
935000 515607 525
281077 724837 509
738630 761695 424
68547 491597 449
171194 561875 470
289701 455564 449
334926 540459 470
271515 883752 525
824744 437835 509
100427 286627 443
105534 446342 449
761471 702538 504
383866 37838 443
334909 872490 525
322248 886968 525
996551 732396 525
511838 987179 525
363608 384974 423
643523 431591 509
172243 783986 509
90335 128320 354
770763 262809 509
440098 511989 470
493275 737587 509
890989 375540 525
724812 200994 509
312654 906919 525
920895 538189 525
359605 909155 525
957949 186210 525
547489 250066 470
830344 621551 509
612997 816098 509
720495 576989 509
368449 982461 525
814264 508203 509
75029 828455 509
624917 431596 470
945060 673886 525
532151 240798 470
39059 701854 509
651797 845527 525
206729 174497 365
738556 332017 509
7528 776314 509
632126 834910 504
287168 361998 441
407050 307107 441
366262 531544 470
798487 928399 525
319767 579353 470
599741 223483 470
923302 430319 525
606562 48439 470
971128 561659 525
41484 392839 443
162790 229990 386
853144 428971 525
310312 325920 384
340546 492857 449
239757 99131 443
679463 436281 509
132635 2862 354
540436 940458 525
701657 372793 509
676198 673243 385
448841 286987 449
164673 973324 525
932997 48105 525
170524 93612 383
797839 899497 525
641904 340747 509
45052 940368 525
728597 611915 509
661337 872446 525
162540 21398 383
857103 832251 525
21154 914161 525
139265 105096 354
686430 864249 525
876780 832543 525
942607 404567 525
507573 571459 470
570551 285563 470
760350 411314 509
30719 22740 308
656766 408672 509
108949 487378 449
32519 237467 443
567789 664785 509
442424 809882 509
360765 376756 423
937741 30908 525
932977 676827 525
577591 579767 359
942061 460193 525
889824 763979 525
493892 493959 289
541785 363590 470
933285 52978 525
636968 312823 509
532892 77374 470
301568 41146 443
775241 26737 509
886696 842149 432
923538 469638 525
822602 323425 509
416821 27814 449
246241 276998 407
769915 722917 468
331032 315294 384
581098 243786 470
516735 512950 395
105621 593738 470
331750 287909 389
