1 10 20
100 200 125
201 210 89
900 1000 174
512596 343472 470
436970 338827 449
385350 665272 509
530118 569844 452
52492 846444 525
867163 393713 525
154230 324143 443
180347 991831 525
75028 269789 443
887696 272128 525
75053 565306 470
834063 572583 509
351974 42875 443
972778 251979 525
227917 650402 509
396356 550451 470
235429 692514 509
26489 233029 443
844040 893464 445
666 350033 443
589770 71201 470
85433 178804 383
269834 897797 525
822676 377431 509
898333 10843 525
204448 42780 383
190350 519203 470
296418 139078 443
808759 685320 504
86003 233608 443
391706 827264 509
203662 58827 383
447828 591370 470
817578 491222 509
809900 81644 509
836413 578290 509
998300 88432 525
980171 635218 525
29957 499830 449
951447 676666 525
713362 847413 525
118680 685276 509
424652 63564 449
66739 148097 375
150040 525114 470
997144 420582 525
832305 913364 525
720628 905727 525
704612 67637 509
731064 482617 509
557747 547020 421
267999 109715 443
885112 14735 525
27671 990356 525
899780 986607 507
607365 287400 470
576390 890791 525
697066 15590 509
286382 412189 449
442632 861143 525
883800 177289 525
909231 140648 525
427255 350955 449
645463 534022 509
265274 413797 449
754440 252223 509
308383 252903 407
486983 831177 509
51061 143110 375
540084 353465 470
633540 243159 509
636364 475511 509
390999 915649 525
846947 536087 525
590532 6389 470
732423 42165 509
454631 631978 509
718806 620281 509
250401 987436 525
654598 239800 509
60666 736155 509
251861 178515 443
902897 517975 525
223045 725686 509
726224 436857 509
965172 24219 525
834920 737085 468
244952 609134 470
207690 417439 449
959739 277555 525
301458 823464 509
304996 287681 389
227880 681528 509
441638 739544 509
646202 977260 525
830227 830150 176
618798 889688 525
412994 425765 418
202795 724392 509
217351 794398 509
346903 951175 525
202113 375216 443
666366 864343 525
272996 311752 389
677815 520880 509
623745 267840 470
828860 405054 509
840322 879555 432
774904 740364 468
353405 369902 410
846114 616799 525
291573 875529 525
711456 793409 468
218063 976906 525
748737 541942 509
400697 935368 525
243655 310680 407
162815 34273 383
824471 43276 509
621532 778833 509
385461 355282 423
638716 962279 525
241357 458968 449
660526 170469 509
219889 853 386
689060 479495 509
366546 556217 470
552776 936493 525
110363 375209 443
770321 818692 468
81948 993606 525
249576 893455 525
616040 60718 470
599271 29475 470
345695 694006 509
251915 975828 525
868827 604476 525
571087 563162 421
976429 279766 525
589129 723306 509
175529 194285 365
627488 920288 525
687896 577522 509
312405 149443 443
75856 839732 525
151927 676216 509
934658 765222 525
802554 860913 525
686571 729062 504
835192 795232 468
482363 651778 509
161373 445544 449
243537 785782 509
789124 27301 509
219717 474040 449
298304 337203 384
671275 541544 509
219953 545060 470
286309 557218 470
330615 749891 509
969519 523350 525
155938 752327 509
751541 46611 509
346952 100558 443
279100 286211 376
616514 225435 470
367267 858936 525
542306 558931 452
450769 77069 449
328986 390717 441
992815 552432 525
46094 389802 443
962192 83507 525
921571 203655 525
645980 818249 504
813019 547632 509
389648 786922 509
839793 110548 525
901430 598432 525
279146 569238 470
581867 203060 470
90524 788524 509
803999 7597 509
243690 107817 443
997898 603061 525
34413 815133 509
594912 645868 509
739527 892217 525
226715 769583 509
803804 86660 509
517190 258275 470
827411 492978 509
753679 944656 525
44666 416332 449
401216 464324 449
938402 76475 525
887761 454421 525
386276 863249 525
901386 584524 525
48465 496606 449
356101 209315 443
87822 123740 354
848193 748787 525
788071 299261 509
952458 17840 525
927801 26518 525
102070 231267 443
166261 376083 443
752454 439426 509
169848 763210 509
671906 897984 525
366836 632243 509
514347 365018 470
282223 414126 449
450660 924574 525
530318 865559 525
618431 511464 470
813986 741800 468
846510 569245 525
272924 990749 525
83195 232993 443
94538 505376 449
620008 471188 470
132365 512080 470
684339 312729 509
159520 480798 449
514742 582962 452
450179 863626 525
717935 731406 411
635149 620134 509
158561 804656 509
320232 23012 443
288247 900271 525
997559 223564 525
398013 731711 509
796658 440231 509
770221 408527 509
880502 979418 507
357780 748284 509
497360 202934 449
116906 166415 383
444294 144839 449
613625 513346 452
179827 644594 509
606030 502403 470
429146 489540 444
448675 146498 449
190329 482098 449
750957 603200 509
968851 314270 525
1 1 1
2 2 2
999999 999999 259
1 999999 525
999999 1 525
1234 5678 238
234563 45678 443
